%YAML 1.1
%TAG !u! tag:unity3d.com,2011:
--- !u!74 &7400000
AnimationClip:
  m_ObjectHideFlags: 0
  m_CorrespondingSourceObject: {fileID: 0}
  m_PrefabInstance: {fileID: 0}
  m_PrefabAsset: {fileID: 0}
  m_Name: run
  serializedVersion: 6
  m_Legacy: 0
  m_Compressed: 0
  m_UseHighQualityCurve: 1
  m_RotationCurves: []
  m_CompressedRotationCurves: []
  m_EulerCurves: []
  m_PositionCurves: []
  m_ScaleCurves: []
  m_FloatCurves: []
  m_PPtrCurves:
  - curve:
    - time: 0
      value: {fileID: 247760763, guid: 4efc2742e642c6b4d881fefa06342390, type: 3}
    - time: 0.033333335
      value: {fileID: -250103743, guid: 4efc2742e642c6b4d881fefa06342390, type: 3}
    - time: 0.06666667
      value: {fileID: -451419607, guid: 4efc2742e642c6b4d881fefa06342390, type: 3}
    - time: 0.13333334
      value: {fileID: 168126540, guid: 4efc2742e642c6b4d881fefa06342390, type: 3}
    - time: 0.2
      value: {fileID: -44085402, guid: 4efc2742e642c6b4d881fefa06342390, type: 3}
    - time: 0.25
      value: {fileID: -759975768, guid: 4efc2742e642c6b4d881fefa06342390, type: 3}
    - time: 0.28333333
      value: {fileID: -176028310, guid: 4efc2742e642c6b4d881fefa06342390, type: 3}
    - time: 0.3
      value: {fileID: 1952745683, guid: 4efc2742e642c6b4d881fefa06342390, type: 3}
    - time: 0.33333334
      value: {fileID: -1667045049, guid: 4efc2742e642c6b4d881fefa06342390, type: 3}
    - time: 0.4
      value: {fileID: -1316804253, guid: 4efc2742e642c6b4d881fefa06342390, type: 3}
    - time: 0.46666667
      value: {fileID: -1450114139, guid: 4efc2742e642c6b4d881fefa06342390, type: 3}
    attribute: m_Sprite
    path: 
    classID: 212
    script: {fileID: 0}
  m_SampleRate: 60
  m_WrapMode: 0
  m_Bounds:
    m_Center: {x: 0, y: 0, z: 0}
    m_Extent: {x: 0, y: 0, z: 0}
  m_ClipBindingConstant:
    genericBindings:
    - serializedVersion: 2
      path: 0
      attribute: 0
      script: {fileID: 0}
      typeID: 212
      customType: 23
      isPPtrCurve: 1
    pptrCurveMapping:
    - {fileID: 247760763, guid: 4efc2742e642c6b4d881fefa06342390, type: 3}
    - {fileID: -250103743, guid: 4efc2742e642c6b4d881fefa06342390, type: 3}
    - {fileID: -451419607, guid: 4efc2742e642c6b4d881fefa06342390, type: 3}
    - {fileID: 168126540, guid: 4efc2742e642c6b4d881fefa06342390, type: 3}
    - {fileID: -44085402, guid: 4efc2742e642c6b4d881fefa06342390, type: 3}
    - {fileID: -759975768, guid: 4efc2742e642c6b4d881fefa06342390, type: 3}
    - {fileID: -176028310, guid: 4efc2742e642c6b4d881fefa06342390, type: 3}
    - {fileID: 1952745683, guid: 4efc2742e642c6b4d881fefa06342390, type: 3}
    - {fileID: -1667045049, guid: 4efc2742e642c6b4d881fefa06342390, type: 3}
    - {fileID: -1316804253, guid: 4efc2742e642c6b4d881fefa06342390, type: 3}
    - {fileID: -1450114139, guid: 4efc2742e642c6b4d881fefa06342390, type: 3}
  m_AnimationClipSettings:
    serializedVersion: 2
    m_AdditiveReferencePoseClip: {fileID: 0}
    m_AdditiveReferencePoseTime: 0
    m_StartTime: 0
    m_StopTime: 0.48333335
    m_OrientationOffsetY: 0
    m_Level: 0
    m_CycleOffset: 0
    m_HasAdditiveReferencePose: 0
    m_LoopTime: 1
    m_LoopBlend: 0
    m_LoopBlendOrientation: 0
    m_LoopBlendPositionY: 0
    m_LoopBlendPositionXZ: 0
    m_KeepOriginalOrientation: 0
    m_KeepOriginalPositionY: 1
    m_KeepOriginalPositionXZ: 0
    m_HeightFromFeet: 0
    m_Mirror: 0
  m_EditorCurves: []
  m_EulerEditorCurves: []
  m_HasGenericRootTransform: 0
  m_HasMotionFloatCurves: 0
  m_Events: []
