%YAML 1.1
%TAG !u! tag:unity3d.com,2011:
--- !u!1045 &1
EditorBuildSettings:
  m_ObjectHideFlags: 0
  serializedVersion: 2
  m_Scenes:
  - enabled: 1
    path: Assets/Scenes/Menu Inicio.unity
    guid: 7e80ab520247b8b4fb18ff3545ca6b2d
  - enabled: 1
    path: Assets/Scenes/EscenaPruebas.unity
    guid: 2cda990e2423bbf4892e6590ba056729
  - enabled: 1
    path: Assets/Scenes/GameOver.unity
    guid: 472d4a5d51b3d4644876ac8619539a6e
  - enabled: 1
    path: Assets/Scenes/EscenaFuturista.unity
    guid: 8c2311c669a62d549ad24e721bead254
  m_configObjects: {}
