%YAML 1.1
%TAG !u! tag:unity3d.com,2011:
--- !u!29 &1
OcclusionCullingSettings:
  m_ObjectHideFlags: 0
  serializedVersion: 2
  m_OcclusionBakeSettings:
    smallestOccluder: 5
    smallestHole: 0.25
    backfaceThreshold: 100
  m_SceneGUID: 00000000000000000000000000000000
  m_OcclusionCullingData: {fileID: 0}
--- !u!104 &2
RenderSettings:
  m_ObjectHideFlags: 0
  serializedVersion: 9
  m_Fog: 0
  m_FogColor: {r: 0.5, g: 0.5, b: 0.5, a: 1}
  m_FogMode: 3
  m_FogDensity: 0.01
  m_LinearFogStart: 0
  m_LinearFogEnd: 300
  m_AmbientSkyColor: {r: 0.212, g: 0.227, b: 0.259, a: 1}
  m_AmbientEquatorColor: {r: 0.114, g: 0.125, b: 0.133, a: 1}
  m_AmbientGroundColor: {r: 0.047, g: 0.043, b: 0.035, a: 1}
  m_AmbientIntensity: 1
  m_AmbientMode: 3
  m_SubtractiveShadowColor: {r: 0.42, g: 0.478, b: 0.627, a: 1}
  m_SkyboxMaterial: {fileID: 0}
  m_HaloStrength: 0.5
  m_FlareStrength: 1
  m_FlareFadeSpeed: 3
  m_HaloTexture: {fileID: 0}
  m_SpotCookie: {fileID: 10001, guid: 0000000000000000e000000000000000, type: 0}
  m_DefaultReflectionMode: 0
  m_DefaultReflectionResolution: 128
  m_ReflectionBounces: 1
  m_ReflectionIntensity: 1
  m_CustomReflection: {fileID: 0}
  m_Sun: {fileID: 0}
  m_IndirectSpecularColor: {r: 0, g: 0, b: 0, a: 1}
  m_UseRadianceAmbientProbe: 0
--- !u!157 &3
LightmapSettings:
  m_ObjectHideFlags: 0
  serializedVersion: 12
  m_GIWorkflowMode: 1
  m_GISettings:
    serializedVersion: 2
    m_BounceScale: 1
    m_IndirectOutputScale: 1
    m_AlbedoBoost: 1
    m_EnvironmentLightingMode: 0
    m_EnableBakedLightmaps: 0
    m_EnableRealtimeLightmaps: 0
  m_LightmapEditorSettings:
    serializedVersion: 12
    m_Resolution: 2
    m_BakeResolution: 40
    m_AtlasSize: 1024
    m_AO: 0
    m_AOMaxDistance: 1
    m_CompAOExponent: 1
    m_CompAOExponentDirect: 0
    m_ExtractAmbientOcclusion: 0
    m_Padding: 2
    m_LightmapParameters: {fileID: 0}
    m_LightmapsBakeMode: 1
    m_TextureCompression: 1
    m_FinalGather: 0
    m_FinalGatherFiltering: 1
    m_FinalGatherRayCount: 256
    m_ReflectionCompression: 2
    m_MixedBakeMode: 2
    m_BakeBackend: 1
    m_PVRSampling: 1
    m_PVRDirectSampleCount: 32
    m_PVRSampleCount: 512
    m_PVRBounces: 2
    m_PVREnvironmentSampleCount: 256
    m_PVREnvironmentReferencePointCount: 2048
    m_PVRFilteringMode: 1
    m_PVRDenoiserTypeDirect: 1
    m_PVRDenoiserTypeIndirect: 1
    m_PVRDenoiserTypeAO: 1
    m_PVRFilterTypeDirect: 0
    m_PVRFilterTypeIndirect: 0
    m_PVRFilterTypeAO: 0
    m_PVREnvironmentMIS: 1
    m_PVRCulling: 1
    m_PVRFilteringGaussRadiusDirect: 1
    m_PVRFilteringGaussRadiusIndirect: 5
    m_PVRFilteringGaussRadiusAO: 2
    m_PVRFilteringAtrousPositionSigmaDirect: 0.5
    m_PVRFilteringAtrousPositionSigmaIndirect: 2
    m_PVRFilteringAtrousPositionSigmaAO: 1
    m_ExportTrainingData: 0
    m_TrainingDataDestination: TrainingData
    m_LightProbeSampleCountMultiplier: 4
  m_LightingDataAsset: {fileID: 0}
  m_LightingSettings: {fileID: 0}
--- !u!196 &4
NavMeshSettings:
  serializedVersion: 2
  m_ObjectHideFlags: 0
  m_BuildSettings:
    serializedVersion: 2
    agentTypeID: 0
    agentRadius: 0.5
    agentHeight: 2
    agentSlope: 45
    agentClimb: 0.4
    ledgeDropHeight: 0
    maxJumpAcrossDistance: 0
    minRegionArea: 2
    manualCellSize: 0
    cellSize: 0.16666667
    manualTileSize: 0
    tileSize: 256
    accuratePlacement: 0
    maxJobWorkers: 0
    preserveTilesOutsideBounds: 0
    debug:
      m_Flags: 0
  m_NavMeshData: {fileID: 0}
--- !u!1001 &140310039
PrefabInstance:
  m_ObjectHideFlags: 0
  serializedVersion: 2
  m_Modification:
    m_TransformParent: {fileID: 0}
    m_Modifications:
    - target: {fileID: 2096089102172226105, guid: 57a3d2a9f7c6df34991bb8b4ef729349, type: 3}
      propertyPath: m_Name
      value: Escena-Boss
      objectReference: {fileID: 0}
    - target: {fileID: 3202667514665769263, guid: 57a3d2a9f7c6df34991bb8b4ef729349, type: 3}
      propertyPath: m_RootOrder
      value: 3
      objectReference: {fileID: 0}
    - target: {fileID: 3202667514665769263, guid: 57a3d2a9f7c6df34991bb8b4ef729349, type: 3}
      propertyPath: m_LocalPosition.x
      value: 0.3506949
      objectReference: {fileID: 0}
    - target: {fileID: 3202667514665769263, guid: 57a3d2a9f7c6df34991bb8b4ef729349, type: 3}
      propertyPath: m_LocalPosition.y
      value: -2.9859905
      objectReference: {fileID: 0}
    - target: {fileID: 3202667514665769263, guid: 57a3d2a9f7c6df34991bb8b4ef729349, type: 3}
      propertyPath: m_LocalPosition.z
      value: 0.037952427
      objectReference: {fileID: 0}
    - target: {fileID: 3202667514665769263, guid: 57a3d2a9f7c6df34991bb8b4ef729349, type: 3}
      propertyPath: m_LocalRotation.w
      value: 1
      objectReference: {fileID: 0}
    - target: {fileID: 3202667514665769263, guid: 57a3d2a9f7c6df34991bb8b4ef729349, type: 3}
      propertyPath: m_LocalRotation.x
      value: 0
      objectReference: {fileID: 0}
    - target: {fileID: 3202667514665769263, guid: 57a3d2a9f7c6df34991bb8b4ef729349, type: 3}
      propertyPath: m_LocalRotation.y
      value: 0
      objectReference: {fileID: 0}
    - target: {fileID: 3202667514665769263, guid: 57a3d2a9f7c6df34991bb8b4ef729349, type: 3}
      propertyPath: m_LocalRotation.z
      value: 0
      objectReference: {fileID: 0}
    - target: {fileID: 3202667514665769263, guid: 57a3d2a9f7c6df34991bb8b4ef729349, type: 3}
      propertyPath: m_LocalEulerAnglesHint.x
      value: 0
      objectReference: {fileID: 0}
    - target: {fileID: 3202667514665769263, guid: 57a3d2a9f7c6df34991bb8b4ef729349, type: 3}
      propertyPath: m_LocalEulerAnglesHint.y
      value: 0
      objectReference: {fileID: 0}
    - target: {fileID: 3202667514665769263, guid: 57a3d2a9f7c6df34991bb8b4ef729349, type: 3}
      propertyPath: m_LocalEulerAnglesHint.z
      value: 0
      objectReference: {fileID: 0}
    m_RemovedComponents: []
  m_SourcePrefab: {fileID: 100100000, guid: 57a3d2a9f7c6df34991bb8b4ef729349, type: 3}
--- !u!1001 &194070002
PrefabInstance:
  m_ObjectHideFlags: 0
  serializedVersion: 2
  m_Modification:
    m_TransformParent: {fileID: 0}
    m_Modifications:
    - target: {fileID: 7276703014570207756, guid: 7794fd2b335fb354a931b4c102d56236, type: 3}
      propertyPath: m_Name
      value: UI
      objectReference: {fileID: 0}
    - target: {fileID: 7276703014570207757, guid: 7794fd2b335fb354a931b4c102d56236, type: 3}
      propertyPath: player
      value: 
      objectReference: {fileID: 1481061683}
    - target: {fileID: 7276703014570207758, guid: 7794fd2b335fb354a931b4c102d56236, type: 3}
      propertyPath: m_RootOrder
      value: 6
      objectReference: {fileID: 0}
    - target: {fileID: 7276703014570207758, guid: 7794fd2b335fb354a931b4c102d56236, type: 3}
      propertyPath: m_LocalPosition.x
      value: 119.43338
      objectReference: {fileID: 0}
    - target: {fileID: 7276703014570207758, guid: 7794fd2b335fb354a931b4c102d56236, type: 3}
      propertyPath: m_LocalPosition.y
      value: 156.45969
      objectReference: {fileID: 0}
    - target: {fileID: 7276703014570207758, guid: 7794fd2b335fb354a931b4c102d56236, type: 3}
      propertyPath: m_LocalPosition.z
      value: 5.139583
      objectReference: {fileID: 0}
    - target: {fileID: 7276703014570207758, guid: 7794fd2b335fb354a931b4c102d56236, type: 3}
      propertyPath: m_LocalRotation.w
      value: 1
      objectReference: {fileID: 0}
    - target: {fileID: 7276703014570207758, guid: 7794fd2b335fb354a931b4c102d56236, type: 3}
      propertyPath: m_LocalRotation.x
      value: 0
      objectReference: {fileID: 0}
    - target: {fileID: 7276703014570207758, guid: 7794fd2b335fb354a931b4c102d56236, type: 3}
      propertyPath: m_LocalRotation.y
      value: 0
      objectReference: {fileID: 0}
    - target: {fileID: 7276703014570207758, guid: 7794fd2b335fb354a931b4c102d56236, type: 3}
      propertyPath: m_LocalRotation.z
      value: 0
      objectReference: {fileID: 0}
    - target: {fileID: 7276703014570207758, guid: 7794fd2b335fb354a931b4c102d56236, type: 3}
      propertyPath: m_LocalEulerAnglesHint.x
      value: 0
      objectReference: {fileID: 0}
    - target: {fileID: 7276703014570207758, guid: 7794fd2b335fb354a931b4c102d56236, type: 3}
      propertyPath: m_LocalEulerAnglesHint.y
      value: 0
      objectReference: {fileID: 0}
    - target: {fileID: 7276703014570207758, guid: 7794fd2b335fb354a931b4c102d56236, type: 3}
      propertyPath: m_LocalEulerAnglesHint.z
      value: 0
      objectReference: {fileID: 0}
    m_RemovedComponents: []
  m_SourcePrefab: {fileID: 100100000, guid: 7794fd2b335fb354a931b4c102d56236, type: 3}
--- !u!1001 &454047075
PrefabInstance:
  m_ObjectHideFlags: 0
  serializedVersion: 2
  m_Modification:
    m_TransformParent: {fileID: 0}
    m_Modifications:
    - target: {fileID: 1106775020743817586, guid: 416d39e7532168b4ea0362d9965f8058, type: 3}
      propertyPath: m_Name
      value: ItemSave
      objectReference: {fileID: 0}
    - target: {fileID: 1106775020743817590, guid: 416d39e7532168b4ea0362d9965f8058, type: 3}
      propertyPath: m_RootOrder
      value: 2
      objectReference: {fileID: 0}
    - target: {fileID: 1106775020743817590, guid: 416d39e7532168b4ea0362d9965f8058, type: 3}
      propertyPath: m_LocalPosition.x
      value: -11.805523
      objectReference: {fileID: 0}
    - target: {fileID: 1106775020743817590, guid: 416d39e7532168b4ea0362d9965f8058, type: 3}
      propertyPath: m_LocalPosition.y
      value: -3.146879
      objectReference: {fileID: 0}
    - target: {fileID: 1106775020743817590, guid: 416d39e7532168b4ea0362d9965f8058, type: 3}
      propertyPath: m_LocalPosition.z
      value: 0
      objectReference: {fileID: 0}
    - target: {fileID: 1106775020743817590, guid: 416d39e7532168b4ea0362d9965f8058, type: 3}
      propertyPath: m_LocalRotation.w
      value: 1
      objectReference: {fileID: 0}
    - target: {fileID: 1106775020743817590, guid: 416d39e7532168b4ea0362d9965f8058, type: 3}
      propertyPath: m_LocalRotation.x
      value: 0
      objectReference: {fileID: 0}
    - target: {fileID: 1106775020743817590, guid: 416d39e7532168b4ea0362d9965f8058, type: 3}
      propertyPath: m_LocalRotation.y
      value: 0
      objectReference: {fileID: 0}
    - target: {fileID: 1106775020743817590, guid: 416d39e7532168b4ea0362d9965f8058, type: 3}
      propertyPath: m_LocalRotation.z
      value: 0
      objectReference: {fileID: 0}
    - target: {fileID: 1106775020743817590, guid: 416d39e7532168b4ea0362d9965f8058, type: 3}
      propertyPath: m_LocalEulerAnglesHint.x
      value: 0
      objectReference: {fileID: 0}
    - target: {fileID: 1106775020743817590, guid: 416d39e7532168b4ea0362d9965f8058, type: 3}
      propertyPath: m_LocalEulerAnglesHint.y
      value: 0
      objectReference: {fileID: 0}
    - target: {fileID: 1106775020743817590, guid: 416d39e7532168b4ea0362d9965f8058, type: 3}
      propertyPath: m_LocalEulerAnglesHint.z
      value: 0
      objectReference: {fileID: 0}
    m_RemovedComponents: []
  m_SourcePrefab: {fileID: 100100000, guid: 416d39e7532168b4ea0362d9965f8058, type: 3}
--- !u!1 &1410138549
GameObject:
  m_ObjectHideFlags: 0
  m_CorrespondingSourceObject: {fileID: 0}
  m_PrefabInstance: {fileID: 0}
  m_PrefabAsset: {fileID: 0}
  serializedVersion: 6
  m_Component:
  - component: {fileID: 1410138552}
  - component: {fileID: 1410138551}
  - component: {fileID: 1410138550}
  m_Layer: 0
  m_Name: EventSystem
  m_TagString: Untagged
  m_Icon: {fileID: 0}
  m_NavMeshLayer: 0
  m_StaticEditorFlags: 0
  m_IsActive: 1
--- !u!114 &1410138550
MonoBehaviour:
  m_ObjectHideFlags: 0
  m_CorrespondingSourceObject: {fileID: 0}
  m_PrefabInstance: {fileID: 0}
  m_PrefabAsset: {fileID: 0}
  m_GameObject: {fileID: 1410138549}
  m_Enabled: 1
  m_EditorHideFlags: 0
  m_Script: {fileID: 11500000, guid: 4f231c4fb786f3946a6b90b886c48677, type: 3}
  m_Name: 
  m_EditorClassIdentifier: 
  m_HorizontalAxis: Horizontal
  m_VerticalAxis: Vertical
  m_SubmitButton: Submit
  m_CancelButton: Cancel
  m_InputActionsPerSecond: 10
  m_RepeatDelay: 0.5
  m_ForceModuleActive: 0
--- !u!114 &1410138551
MonoBehaviour:
  m_ObjectHideFlags: 0
  m_CorrespondingSourceObject: {fileID: 0}
  m_PrefabInstance: {fileID: 0}
  m_PrefabAsset: {fileID: 0}
  m_GameObject: {fileID: 1410138549}
  m_Enabled: 1
  m_EditorHideFlags: 0
  m_Script: {fileID: 11500000, guid: 76c392e42b5098c458856cdf6ecaaaa1, type: 3}
  m_Name: 
  m_EditorClassIdentifier: 
  m_FirstSelected: {fileID: 0}
  m_sendNavigationEvents: 1
  m_DragThreshold: 10
--- !u!4 &1410138552
Transform:
  m_ObjectHideFlags: 0
  m_CorrespondingSourceObject: {fileID: 0}
  m_PrefabInstance: {fileID: 0}
  m_PrefabAsset: {fileID: 0}
  m_GameObject: {fileID: 1410138549}
  m_LocalRotation: {x: 0, y: 0, z: 0, w: 1}
  m_LocalPosition: {x: 0, y: 0, z: 0}
  m_LocalScale: {x: 1, y: 1, z: 1}
  m_ConstrainProportionsScale: 0
  m_Children: []
  m_Father: {fileID: 0}
  m_RootOrder: 4
  m_LocalEulerAnglesHint: {x: 0, y: 0, z: 0}
--- !u!114 &1481061683 stripped
MonoBehaviour:
  m_CorrespondingSourceObject: {fileID: 5878241989740099277, guid: 2e795d21c8d1f714086eed42dce386b3, type: 3}
  m_PrefabInstance: {fileID: 1713421967}
  m_PrefabAsset: {fileID: 0}
  m_GameObject: {fileID: 0}
  m_Enabled: 1
  m_EditorHideFlags: 0
  m_Script: {fileID: 11500000, guid: 41c2ee1ee4a28f54a98e21daf4fc43fb, type: 3}
  m_Name: 
  m_EditorClassIdentifier: 
--- !u!1001 &1521408607
PrefabInstance:
  m_ObjectHideFlags: 0
  serializedVersion: 2
  m_Modification:
    m_TransformParent: {fileID: 0}
    m_Modifications:
    - target: {fileID: 3915655652343387608, guid: 80830fea888d70c459481aee8e80fb40, type: 3}
      propertyPath: m_RootOrder
      value: 1
      objectReference: {fileID: 0}
    - target: {fileID: 3915655652343387608, guid: 80830fea888d70c459481aee8e80fb40, type: 3}
      propertyPath: m_LocalPosition.x
      value: -11.429048
      objectReference: {fileID: 0}
    - target: {fileID: 3915655652343387608, guid: 80830fea888d70c459481aee8e80fb40, type: 3}
      propertyPath: m_LocalPosition.y
      value: -2.3772042
      objectReference: {fileID: 0}
    - target: {fileID: 3915655652343387608, guid: 80830fea888d70c459481aee8e80fb40, type: 3}
      propertyPath: m_LocalPosition.z
      value: 0
      objectReference: {fileID: 0}
    - target: {fileID: 3915655652343387608, guid: 80830fea888d70c459481aee8e80fb40, type: 3}
      propertyPath: m_LocalRotation.w
      value: 1
      objectReference: {fileID: 0}
    - target: {fileID: 3915655652343387608, guid: 80830fea888d70c459481aee8e80fb40, type: 3}
      propertyPath: m_LocalRotation.x
      value: 0
      objectReference: {fileID: 0}
    - target: {fileID: 3915655652343387608, guid: 80830fea888d70c459481aee8e80fb40, type: 3}
      propertyPath: m_LocalRotation.y
      value: 0
      objectReference: {fileID: 0}
    - target: {fileID: 3915655652343387608, guid: 80830fea888d70c459481aee8e80fb40, type: 3}
      propertyPath: m_LocalRotation.z
      value: 0
      objectReference: {fileID: 0}
    - target: {fileID: 3915655652343387608, guid: 80830fea888d70c459481aee8e80fb40, type: 3}
      propertyPath: m_LocalEulerAnglesHint.x
      value: 0
      objectReference: {fileID: 0}
    - target: {fileID: 3915655652343387608, guid: 80830fea888d70c459481aee8e80fb40, type: 3}
      propertyPath: m_LocalEulerAnglesHint.y
      value: 0
      objectReference: {fileID: 0}
    - target: {fileID: 3915655652343387608, guid: 80830fea888d70c459481aee8e80fb40, type: 3}
      propertyPath: m_LocalEulerAnglesHint.z
      value: 0
      objectReference: {fileID: 0}
    - target: {fileID: 7717428901243451129, guid: 80830fea888d70c459481aee8e80fb40, type: 3}
      propertyPath: m_Name
      value: Espada
      objectReference: {fileID: 0}
    m_RemovedComponents: []
  m_SourcePrefab: {fileID: 100100000, guid: 80830fea888d70c459481aee8e80fb40, type: 3}
--- !u!1001 &1713421967
PrefabInstance:
  m_ObjectHideFlags: 0
  serializedVersion: 2
  m_Modification:
    m_TransformParent: {fileID: 0}
    m_Modifications:
    - target: {fileID: 5878241989740099265, guid: 2e795d21c8d1f714086eed42dce386b3, type: 3}
      propertyPath: m_Name
      value: MainCharacter
      objectReference: {fileID: 0}
    - target: {fileID: 5878241989740099275, guid: 2e795d21c8d1f714086eed42dce386b3, type: 3}
      propertyPath: m_RootOrder
      value: 7
      objectReference: {fileID: 0}
    - target: {fileID: 5878241989740099275, guid: 2e795d21c8d1f714086eed42dce386b3, type: 3}
      propertyPath: m_LocalPosition.x
      value: -6.35
      objectReference: {fileID: 0}
    - target: {fileID: 5878241989740099275, guid: 2e795d21c8d1f714086eed42dce386b3, type: 3}
      propertyPath: m_LocalPosition.y
      value: -2.564
      objectReference: {fileID: 0}
    - target: {fileID: 5878241989740099275, guid: 2e795d21c8d1f714086eed42dce386b3, type: 3}
      propertyPath: m_LocalPosition.z
      value: 0
      objectReference: {fileID: 0}
    - target: {fileID: 5878241989740099275, guid: 2e795d21c8d1f714086eed42dce386b3, type: 3}
      propertyPath: m_LocalRotation.w
      value: 1
      objectReference: {fileID: 0}
    - target: {fileID: 5878241989740099275, guid: 2e795d21c8d1f714086eed42dce386b3, type: 3}
      propertyPath: m_LocalRotation.x
      value: 0
      objectReference: {fileID: 0}
    - target: {fileID: 5878241989740099275, guid: 2e795d21c8d1f714086eed42dce386b3, type: 3}
      propertyPath: m_LocalRotation.y
      value: 0
      objectReference: {fileID: 0}
    - target: {fileID: 5878241989740099275, guid: 2e795d21c8d1f714086eed42dce386b3, type: 3}
      propertyPath: m_LocalRotation.z
      value: 0
      objectReference: {fileID: 0}
    - target: {fileID: 5878241989740099275, guid: 2e795d21c8d1f714086eed42dce386b3, type: 3}
      propertyPath: m_LocalEulerAnglesHint.x
      value: 0
      objectReference: {fileID: 0}
    - target: {fileID: 5878241989740099275, guid: 2e795d21c8d1f714086eed42dce386b3, type: 3}
      propertyPath: m_LocalEulerAnglesHint.y
      value: 0
      objectReference: {fileID: 0}
    - target: {fileID: 5878241989740099275, guid: 2e795d21c8d1f714086eed42dce386b3, type: 3}
      propertyPath: m_LocalEulerAnglesHint.z
      value: 0
      objectReference: {fileID: 0}
    m_RemovedComponents: []
  m_SourcePrefab: {fileID: 100100000, guid: 2e795d21c8d1f714086eed42dce386b3, type: 3}
--- !u!1 &1786933338
GameObject:
  m_ObjectHideFlags: 0
  m_CorrespondingSourceObject: {fileID: 0}
  m_PrefabInstance: {fileID: 0}
  m_PrefabAsset: {fileID: 0}
  serializedVersion: 6
  m_Component:
  - component: {fileID: 1786933341}
  - component: {fileID: 1786933340}
  - component: {fileID: 1786933339}
  m_Layer: 0
  m_Name: Main Camera
  m_TagString: MainCamera
  m_Icon: {fileID: 0}
  m_NavMeshLayer: 0
  m_StaticEditorFlags: 0
  m_IsActive: 1
--- !u!81 &1786933339
AudioListener:
  m_ObjectHideFlags: 0
  m_CorrespondingSourceObject: {fileID: 0}
  m_PrefabInstance: {fileID: 0}
  m_PrefabAsset: {fileID: 0}
  m_GameObject: {fileID: 1786933338}
  m_Enabled: 1
--- !u!20 &1786933340
Camera:
  m_ObjectHideFlags: 0
  m_CorrespondingSourceObject: {fileID: 0}
  m_PrefabInstance: {fileID: 0}
  m_PrefabAsset: {fileID: 0}
  m_GameObject: {fileID: 1786933338}
  m_Enabled: 1
  serializedVersion: 2
  m_ClearFlags: 1
  m_BackGroundColor: {r: 0.19215687, g: 0.3019608, b: 0.4745098, a: 0}
  m_projectionMatrixMode: 1
  m_GateFitMode: 2
  m_FOVAxisMode: 0
  m_SensorSize: {x: 36, y: 24}
  m_LensShift: {x: 0, y: 0}
  m_FocalLength: 50
  m_NormalizedViewPortRect:
    serializedVersion: 2
    x: 0
    y: 0
    width: 1
    height: 1
  near clip plane: 0.3
  far clip plane: 1000
  field of view: 60
  orthographic: 1
  orthographic size: 5
  m_Depth: -1
  m_CullingMask:
    serializedVersion: 2
    m_Bits: 4294967295
  m_RenderingPath: -1
  m_TargetTexture: {fileID: 0}
  m_TargetDisplay: 0
  m_TargetEye: 3
  m_HDR: 1
  m_AllowMSAA: 1
  m_AllowDynamicResolution: 0
  m_ForceIntoRT: 0
  m_OcclusionCulling: 1
  m_StereoConvergence: 10
  m_StereoSeparation: 0.022
--- !u!4 &1786933341
Transform:
  m_ObjectHideFlags: 0
  m_CorrespondingSourceObject: {fileID: 0}
  m_PrefabInstance: {fileID: 0}
  m_PrefabAsset: {fileID: 0}
  m_GameObject: {fileID: 1786933338}
  m_LocalRotation: {x: 0, y: 0, z: 0, w: 1}
  m_LocalPosition: {x: 0, y: 0, z: -10}
  m_LocalScale: {x: 1, y: 1, z: 1}
  m_ConstrainProportionsScale: 0
  m_Children: []
  m_Father: {fileID: 0}
  m_RootOrder: 0
  m_LocalEulerAnglesHint: {x: 0, y: 0, z: 0}
--- !u!1001 &2383600452872340263
PrefabInstance:
  m_ObjectHideFlags: 0
  serializedVersion: 2
  m_Modification:
    m_TransformParent: {fileID: 0}
    m_Modifications:
    - target: {fileID: 2383600452230052131, guid: bd5a92be33088d843bf61669666e8216, type: 3}
      propertyPath: m_RootOrder
      value: 5
      objectReference: {fileID: 0}
    - target: {fileID: 2383600452230052131, guid: bd5a92be33088d843bf61669666e8216, type: 3}
      propertyPath: m_LocalPosition.x
      value: -10.4839
      objectReference: {fileID: 0}
    - target: {fileID: 2383600452230052131, guid: bd5a92be33088d843bf61669666e8216, type: 3}
      propertyPath: m_LocalPosition.y
      value: -3.0206
      objectReference: {fileID: 0}
    - target: {fileID: 2383600452230052131, guid: bd5a92be33088d843bf61669666e8216, type: 3}
      propertyPath: m_LocalPosition.z
      value: 0
      objectReference: {fileID: 0}
    - target: {fileID: 2383600452230052131, guid: bd5a92be33088d843bf61669666e8216, type: 3}
      propertyPath: m_LocalRotation.w
      value: 1
      objectReference: {fileID: 0}
    - target: {fileID: 2383600452230052131, guid: bd5a92be33088d843bf61669666e8216, type: 3}
      propertyPath: m_LocalRotation.x
      value: 0
      objectReference: {fileID: 0}
    - target: {fileID: 2383600452230052131, guid: bd5a92be33088d843bf61669666e8216, type: 3}
      propertyPath: m_LocalRotation.y
      value: 0
      objectReference: {fileID: 0}
    - target: {fileID: 2383600452230052131, guid: bd5a92be33088d843bf61669666e8216, type: 3}
      propertyPath: m_LocalRotation.z
      value: 0
      objectReference: {fileID: 0}
    - target: {fileID: 2383600452230052131, guid: bd5a92be33088d843bf61669666e8216, type: 3}
      propertyPath: m_LocalEulerAnglesHint.x
      value: 0
      objectReference: {fileID: 0}
    - target: {fileID: 2383600452230052131, guid: bd5a92be33088d843bf61669666e8216, type: 3}
      propertyPath: m_LocalEulerAnglesHint.y
      value: 0
      objectReference: {fileID: 0}
    - target: {fileID: 2383600452230052131, guid: bd5a92be33088d843bf61669666e8216, type: 3}
      propertyPath: m_LocalEulerAnglesHint.z
      value: 0
      objectReference: {fileID: 0}
    - target: {fileID: 2383600452230052135, guid: bd5a92be33088d843bf61669666e8216, type: 3}
      propertyPath: m_Name
      value: LightSaber
      objectReference: {fileID: 0}
    m_RemovedComponents: []
  m_SourcePrefab: {fileID: 100100000, guid: bd5a92be33088d843bf61669666e8216, type: 3}
